HTS/Digital Clock/simulation/qsim/digitalClock.msim.vcd
$comment
	File created using the following command:
		vcd file digitalClock.msim.vcd -direction
$end
$date
	Fri May 17 08:56:21 2019
$end
$version
	ModelSim Version 10.1d
$end
$timescale
	1ps
$end
$scope module digitalClock_vlg_vec_tst $end
$var reg 1 ! CLOCK_50 $end
$var reg 1 " KEY [0:0] $end
$var wire 1 # HEX0 [0] $end
$var wire 1 $ HEX0 [1] $end
$var wire 1 % HEX0 [2] $end
$var wire 1 & HEX0 [3] $end
$var wire 1 ' HEX0 [4] $end
$var wire 1 ( HEX0 [5] $end
$var wire 1 ) HEX0 [6] $end
$var wire 1 * HEX1 [0] $end
$var wire 1 + HEX1 [1] $end
$var wire 1 , HEX1 [2] $end
$var wire 1 - HEX1 [3] $end
$var wire 1 . HEX1 [4] $end
$var wire 1 / HEX1 [5] $end
$var wire 1 0 HEX1 [6] $end
$var wire 1 1 HEX2 [0] $end
$var wire 1 2 HEX2 [1] $end
$var wire 1 3 HEX2 [2] $end
$var wire 1 4 HEX2 [3] $end
$var wire 1 5 HEX2 [4] $end
$var wire 1 6 HEX2 [5] $end
$var wire 1 7 HEX2 [6] $end
$var wire 1 8 HEX3 [0] $end
$var wire 1 9 HEX3 [1] $end
$var wire 1 : HEX3 [2] $end
$var wire 1 ; HEX3 [3] $end
$var wire 1 < HEX3 [4] $end
$var wire 1 = HEX3 [5] $end
$var wire 1 > HEX3 [6] $end
$var wire 1 ? HEX4 [0] $end
$var wire 1 @ HEX4 [1] $end
$var wire 1 A HEX4 [2] $end
$var wire 1 B HEX4 [3] $end
$var wire 1 C HEX4 [4] $end
$var wire 1 D HEX4 [5] $end
$var wire 1 E HEX4 [6] $end
$var wire 1 F HEX5 [0] $end
$var wire 1 G HEX5 [1] $end
$var wire 1 H HEX5 [2] $end
$var wire 1 I HEX5 [3] $end
$var wire 1 J HEX5 [4] $end
$var wire 1 K HEX5 [5] $end
$var wire 1 L HEX5 [6] $end
$var wire 1 M HEX6 [0] $end
$var wire 1 N HEX6 [1] $end
$var wire 1 O HEX6 [2] $end
$var wire 1 P HEX6 [3] $end
$var wire 1 Q HEX6 [4] $end
$var wire 1 R HEX6 [5] $end
$var wire 1 S HEX6 [6] $end
$var wire 1 T sampler $end
$scope module i1 $end
$var wire 1 U gnd $end
$var wire 1 V vcc $end
$var wire 1 W unknown $end
$var tri1 1 X devclrn $end
$var tri1 1 Y devpor $end
$var tri1 1 Z devoe $end
$var wire 1 [ comb_3|count[0]~26_combout $end
$var wire 1 \ comb_3|count[0]~27 $end
$var wire 1 ] comb_3|count[1]~28_combout $end
$var wire 1 ^ comb_3|count[1]~29 $end
$var wire 1 _ comb_3|count[2]~30_combout $end
$var wire 1 ` comb_3|count[2]~31 $end
$var wire 1 a comb_3|count[3]~32_combout $end
$var wire 1 b comb_3|count[3]~33 $end
$var wire 1 c comb_3|count[4]~34_combout $end
$var wire 1 d comb_3|count[4]~35 $end
$var wire 1 e comb_3|count[5]~36_combout $end
$var wire 1 f comb_3|count[5]~37 $end
$var wire 1 g comb_3|count[6]~38_combout $end
$var wire 1 h comb_3|count[6]~39 $end
$var wire 1 i comb_3|count[7]~40_combout $end
$var wire 1 j comb_3|count[7]~41 $end
$var wire 1 k comb_3|count[8]~42_combout $end
$var wire 1 l comb_3|count[8]~43 $end
$var wire 1 m comb_3|count[9]~44_combout $end
$var wire 1 n comb_3|count[9]~45 $end
$var wire 1 o comb_3|count[10]~46_combout $end
$var wire 1 p comb_3|count[10]~47 $end
$var wire 1 q comb_3|count[11]~48_combout $end
$var wire 1 r comb_3|count[11]~49 $end
$var wire 1 s comb_3|count[12]~50_combout $end
$var wire 1 t comb_3|count[12]~51 $end
$var wire 1 u comb_3|count[13]~52_combout $end
$var wire 1 v comb_3|count[13]~53 $end
$var wire 1 w comb_3|count[14]~54_combout $end
$var wire 1 x comb_3|count[14]~55 $end
$var wire 1 y comb_3|count[15]~56_combout $end
$var wire 1 z comb_3|count[15]~57 $end
$var wire 1 { comb_3|count[16]~58_combout $end
$var wire 1 | comb_3|count[16]~59 $end
$var wire 1 } comb_3|count[17]~60_combout $end
$var wire 1 ~ comb_3|count[17]~61 $end
$var wire 1 !! comb_3|count[18]~62_combout $end
$var wire 1 "! comb_3|count[18]~63 $end
$var wire 1 #! comb_3|count[19]~64_combout $end
$var wire 1 $! comb_3|count[19]~65 $end
$var wire 1 %! comb_3|count[20]~66_combout $end
$var wire 1 &! comb_3|count[20]~67 $end
$var wire 1 '! comb_3|count[21]~68_combout $end
$var wire 1 (! comb_3|count[21]~69 $end
$var wire 1 )! comb_3|count[22]~70_combout $end
$var wire 1 *! comb_3|count[22]~71 $end
$var wire 1 +! comb_3|count[23]~72_combout $end
$var wire 1 ,! comb_3|count[23]~73 $end
$var wire 1 -! comb_3|count[24]~74_combout $end
$var wire 1 .! comb_3|count[24]~75 $end
$var wire 1 /! comb_3|count[25]~76_combout $end
$var wire 1 0! comb_13|Add0~0_combout $end
$var wire 1 1! comb_13|Add0~1_combout $end
$var wire 1 2! comb_9|Add0~0_combout $end
$var wire 1 3! comb_3|LessThan0~0_combout $end
$var wire 1 4! comb_3|LessThan0~1_combout $end
$var wire 1 5! comb_3|LessThan0~2_combout $end
$var wire 1 6! comb_3|LessThan0~3_combout $end
$var wire 1 7! comb_3|LessThan0~4_combout $end
$var wire 1 8! comb_3|LessThan0~5_combout $end
$var wire 1 9! comb_3|LessThan0~6_combout $end
$var wire 1 :! comb_3|LessThan0~7_combout $end
$var wire 1 ;! comb_3|LessThan0~8_combout $end
$var wire 1 <! comb_3|clk_out~0_combout $end
$var wire 1 =! CLOCK_50~input_o $end
$var wire 1 >! CLOCK_50~inputclkctrl_outclk $end
$var wire 1 ?! HEX6[6]~output_o $end
$var wire 1 @! HEX6[5]~output_o $end
$var wire 1 A! HEX6[4]~output_o $end
$var wire 1 B! HEX6[3]~output_o $end
$var wire 1 C! HEX6[2]~output_o $end
$var wire 1 D! HEX6[1]~output_o $end
$var wire 1 E! HEX6[0]~output_o $end
$var wire 1 F! HEX5[6]~output_o $end
$var wire 1 G! HEX5[5]~output_o $end
$var wire 1 H! HEX5[4]~output_o $end
$var wire 1 I! HEX5[3]~output_o $end
$var wire 1 J! HEX5[2]~output_o $end
$var wire 1 K! HEX5[1]~output_o $end
$var wire 1 L! HEX5[0]~output_o $end
$var wire 1 M! HEX4[6]~output_o $end
$var wire 1 N! HEX4[5]~output_o $end
$var wire 1 O! HEX4[4]~output_o $end
$var wire 1 P! HEX4[3]~output_o $end
$var wire 1 Q! HEX4[2]~output_o $end
$var wire 1 R! HEX4[1]~output_o $end
$var wire 1 S! HEX4[0]~output_o $end
$var wire 1 T! HEX3[6]~output_o $end
$var wire 1 U! HEX3[5]~output_o $end
$var wire 1 V! HEX3[4]~output_o $end
$var wire 1 W! HEX3[3]~output_o $end
$var wire 1 X! HEX3[2]~output_o $end
$var wire 1 Y! HEX3[1]~output_o $end
$var wire 1 Z! HEX3[0]~output_o $end
$var wire 1 [! HEX2[6]~output_o $end
$var wire 1 \! HEX2[5]~output_o $end
$var wire 1 ]! HEX2[4]~output_o $end
$var wire 1 ^! HEX2[3]~output_o $end
$var wire 1 _! HEX2[2]~output_o $end
$var wire 1 `! HEX2[1]~output_o $end
$var wire 1 a! HEX2[0]~output_o $end
$var wire 1 b! HEX1[6]~output_o $end
$var wire 1 c! HEX1[5]~output_o $end
$var wire 1 d! HEX1[4]~output_o $end
$var wire 1 e! HEX1[3]~output_o $end
$var wire 1 f! HEX1[2]~output_o $end
$var wire 1 g! HEX1[1]~output_o $end
$var wire 1 h! HEX1[0]~output_o $end
$var wire 1 i! HEX0[6]~output_o $end
$var wire 1 j! HEX0[5]~output_o $end
$var wire 1 k! HEX0[4]~output_o $end
$var wire 1 l! HEX0[3]~output_o $end
$var wire 1 m! HEX0[2]~output_o $end
$var wire 1 n! HEX0[1]~output_o $end
$var wire 1 o! HEX0[0]~output_o $end
$var wire 1 p! comb_3|clk_out~feeder_combout $end
$var wire 1 q! comb_3|clk_out~q $end
$var wire 1 r! comb_3|clk_out~clkctrl_outclk $end
$var wire 1 s! KEY[0]~input_o $end
$var wire 1 t! comb_9|qout~3_combout $end
$var wire 1 u! comb_5|qout~0_combout $end
$var wire 1 v! comb_5|qout~5_combout $end
$var wire 1 w! comb_5|Add1~0_combout $end
$var wire 1 x! comb_5|qout~8_combout $end
$var wire 1 y! comb_5|qout~7_combout $end
$var wire 1 z! comb_5|Equal2~0_combout $end
$var wire 1 {! comb_5|qout[7]~1_combout $end
$var wire 1 |! comb_5|qout~2_combout $end
$var wire 1 }! comb_5|Add0~0_combout $end
$var wire 1 ~! comb_5|qout~3_combout $end
$var wire 1 !" comb_5|Add0~1_combout $end
$var wire 1 "" comb_5|qout~4_combout $end
$var wire 1 #" comb_5|Equal2~1_combout $end
$var wire 1 $" comb_9|qout~7_combout $end
$var wire 1 %" comb_9|qout[3]~6_combout $end
$var wire 1 &" comb_9|Add1~0_combout $end
$var wire 1 '" comb_9|qout~8_combout $end
$var wire 1 (" comb_9|qout~5_combout $end
$var wire 1 )" comb_9|Add1~1_combout $end
$var wire 1 *" comb_9|qout~9_combout $end
$var wire 1 +" comb_9|cout~0_combout $end
$var wire 1 ," comb_9|qout[7]~1_combout $end
$var wire 1 -" comb_9|qout~0_combout $end
$var wire 1 ." comb_9|qout~2_combout $end
$var wire 1 /" comb_9|cout~1_combout $end
$var wire 1 0" comb_9|cout~combout $end
$var wire 1 1" comb_13|qout~9_combout $end
$var wire 1 2" comb_13|qout[3]~10_combout $end
$var wire 1 3" comb_13|qout[3]~11_combout $end
$var wire 1 4" comb_13|qout[7]~5_combout $end
$var wire 1 5" comb_13|qout[7]~8_combout $end
$var wire 1 6" comb_13|qout[4]~0_combout $end
$var wire 1 7" comb_13|cout~1_combout $end
$var wire 1 8" comb_13|qout[6]~7_combout $end
$var wire 1 9" comb_13|Add1~0_combout $end
$var wire 1 :" comb_13|qout~13_combout $end
$var wire 1 ;" comb_13|Add1~1_combout $end
$var wire 1 <" comb_13|qout~14_combout $end
$var wire 1 =" comb_13|cout~0_combout $end
$var wire 1 >" comb_13|always0~0_combout $end
$var wire 1 ?" comb_13|qout[7]~1_combout $end
$var wire 1 @" comb_13|qout[5]~6_combout $end
$var wire 1 A" comb_13|qout[7]~2_combout $end
$var wire 1 B" comb_13|qout[7]~3_combout $end
$var wire 1 C" comb_13|qout[7]~4_combout $end
$var wire 1 D" comb_13|qout~12_combout $end
$var wire 1 E" comb_13|cout~2_combout $end
$var wire 1 F" comb_17|qout~0_combout $end
$var wire 1 G" comb_17|qout~q $end
$var wire 1 H" comb_15|WideOr6~0_combout $end
$var wire 1 I" comb_15|WideOr5~0_combout $end
$var wire 1 J" comb_15|WideOr4~0_combout $end
$var wire 1 K" comb_15|WideOr3~0_combout $end
$var wire 1 L" comb_15|WideOr2~0_combout $end
$var wire 1 M" comb_15|WideOr1~0_combout $end
$var wire 1 N" comb_15|WideOr0~0_combout $end
$var wire 1 O" comb_14|WideOr6~0_combout $end
$var wire 1 P" comb_14|WideOr5~0_combout $end
$var wire 1 Q" comb_14|WideOr4~0_combout $end
$var wire 1 R" comb_14|WideOr3~0_combout $end
$var wire 1 S" comb_14|WideOr2~0_combout $end
$var wire 1 T" comb_14|WideOr1~0_combout $end
$var wire 1 U" comb_14|WideOr0~0_combout $end
$var wire 1 V" comb_9|Add0~1_combout $end
$var wire 1 W" comb_9|qout~4_combout $end
$var wire 1 X" comb_11|WideOr6~0_combout $end
$var wire 1 Y" comb_11|WideOr5~0_combout $end
$var wire 1 Z" comb_11|WideOr4~0_combout $end
$var wire 1 [" comb_11|WideOr3~0_combout $end
$var wire 1 \" comb_11|WideOr2~0_combout $end
$var wire 1 ]" comb_11|WideOr1~0_combout $end
$var wire 1 ^" comb_11|WideOr0~0_combout $end
$var wire 1 _" comb_10|WideOr6~0_combout $end
$var wire 1 `" comb_10|WideOr5~0_combout $end
$var wire 1 a" comb_10|WideOr4~0_combout $end
$var wire 1 b" comb_10|WideOr3~0_combout $end
$var wire 1 c" comb_10|WideOr2~0_combout $end
$var wire 1 d" comb_10|WideOr1~0_combout $end
$var wire 1 e" comb_10|WideOr0~0_combout $end
$var wire 1 f" comb_7|WideOr6~0_combout $end
$var wire 1 g" comb_7|WideOr5~0_combout $end
$var wire 1 h" comb_7|WideOr4~0_combout $end
$var wire 1 i" comb_7|WideOr3~0_combout $end
$var wire 1 j" comb_7|WideOr2~0_combout $end
$var wire 1 k" comb_7|WideOr1~0_combout $end
$var wire 1 l" comb_7|WideOr0~0_combout $end
$var wire 1 m" comb_5|qout~6_combout $end
$var wire 1 n" comb_6|WideOr6~0_combout $end
$var wire 1 o" comb_6|WideOr5~0_combout $end
$var wire 1 p" comb_6|WideOr4~0_combout $end
$var wire 1 q" comb_6|WideOr3~0_combout $end
$var wire 1 r" comb_6|WideOr2~0_combout $end
$var wire 1 s" comb_6|WideOr1~0_combout $end
$var wire 1 t" comb_6|WideOr0~0_combout $end
$var wire 1 u" comb_5|qout [7] $end
$var wire 1 v" comb_5|qout [6] $end
$var wire 1 w" comb_5|qout [5] $end
$var wire 1 x" comb_5|qout [4] $end
$var wire 1 y" comb_5|qout [3] $end
$var wire 1 z" comb_5|qout [2] $end
$var wire 1 {" comb_5|qout [1] $end
$var wire 1 |" comb_5|qout [0] $end
$var wire 1 }" comb_9|qout [7] $end
$var wire 1 ~" comb_9|qout [6] $end
$var wire 1 !# comb_9|qout [5] $end
$var wire 1 "# comb_9|qout [4] $end
$var wire 1 ## comb_9|qout [3] $end
$var wire 1 $# comb_9|qout [2] $end
$var wire 1 %# comb_9|qout [1] $end
$var wire 1 &# comb_9|qout [0] $end
$var wire 1 '# comb_13|qout [7] $end
$var wire 1 (# comb_13|qout [6] $end
$var wire 1 )# comb_13|qout [5] $end
$var wire 1 *# comb_13|qout [4] $end
$var wire 1 +# comb_13|qout [3] $end
$var wire 1 ,# comb_13|qout [2] $end
$var wire 1 -# comb_13|qout [1] $end
$var wire 1 .# comb_13|qout [0] $end
$var wire 1 /# comb_3|count [25] $end
$var wire 1 0# comb_3|count [24] $end
$var wire 1 1# comb_3|count [23] $end
$var wire 1 2# comb_3|count [22] $end
$var wire 1 3# comb_3|count [21] $end
$var wire 1 4# comb_3|count [20] $end
$var wire 1 5# comb_3|count [19] $end
$var wire 1 6# comb_3|count [18] $end
$var wire 1 7# comb_3|count [17] $end
$var wire 1 8# comb_3|count [16] $end
$var wire 1 9# comb_3|count [15] $end
$var wire 1 :# comb_3|count [14] $end
$var wire 1 ;# comb_3|count [13] $end
$var wire 1 <# comb_3|count [12] $end
$var wire 1 =# comb_3|count [11] $end
$var wire 1 ># comb_3|count [10] $end
$var wire 1 ?# comb_3|count [9] $end
$var wire 1 @# comb_3|count [8] $end
$var wire 1 A# comb_3|count [7] $end
$var wire 1 B# comb_3|count [6] $end
$var wire 1 C# comb_3|count [5] $end
$var wire 1 D# comb_3|count [4] $end
$var wire 1 E# comb_3|count [3] $end
$var wire 1 F# comb_3|count [2] $end
$var wire 1 G# comb_3|count [1] $end
$var wire 1 H# comb_3|count [0] $end
$upscope $end
$upscope $end
$enddefinitions $end
#0
$dumpvars
0!
b1 "
1)
0(
0'
0&
0%
0$
0#
10
0/
0.
0-
0,
0+
0*
17
06
05
04
03
02
01
1>
0=
0<
0;
0:
09
08
1E
0D
0C
0B
0A
0@
0?
1L
0K
0J
0I
0H
0G
0F
0S
0R
0Q
1P
0O
0N
0M
xT
0U
1V
xW
1X
1Y
1Z
1[
0\
0]
1^
0_
0`
0a
1b
0c
0d
0e
1f
0g
0h
0i
1j
0k
0l
0m
1n
0o
0p
0q
1r
0s
0t
0u
1v
0w
0x
0y
1z
0{
0|
0}
1~
0!!
0"!
0#!
1$!
0%!
0&!
0'!
1(!
0)!
0*!
0+!
1,!
0-!
0.!
0/!
00!
01!
02!
13!
14!
15!
16!
17!
18!
09!
1:!
0;!
0<!
0=!
0>!
0?!
0@!
0A!
1B!
0C!
0D!
0E!
1F!
0G!
0H!
0I!
0J!
0K!
0L!
1M!
0N!
0O!
0P!
0Q!
0R!
0S!
1T!
0U!
0V!
0W!
0X!
0Y!
0Z!
1[!
0\!
0]!
0^!
0_!
0`!
0a!
1b!
0c!
0d!
0e!
0f!
0g!
0h!
1i!
0j!
0k!
0l!
0m!
0n!
0o!
0p!
0q!
0r!
1s!
0t!
1u!
1v!
0w!
0x!
0y!
0z!
0{!
0|!
0}!
0~!
0!"
0""
0#"
0$"
0%"
0&"
0'"
1("
0)"
0*"
0+"
0,"
1-"
0."
0/"
10"
11"
12"
03"
14"
05"
16"
07"
08"
09"
0:"
0;"
0<"
1="
1>"
1?"
0@"
1A"
1B"
1C"
0D"
0E"
0F"
0G"
0H"
0I"
0J"
0K"
0L"
0M"
0N"
0O"
0P"
0Q"
0R"
0S"
0T"
0U"
0V"
0W"
0X"
0Y"
0Z"
0["
0\"
0]"
0^"
0_"
0`"
0a"
0b"
0c"
0d"
0e"
0f"
0g"
0h"
0i"
0j"
0k"
0l"
0m"
0n"
0o"
0p"
0q"
0r"
0s"
0t"
0|"
0{"
0z"
0y"
0x"
0w"
0v"
0u"
0&#
0%#
0$#
0##
0"#
0!#
0~"
0}"
0.#
0-#
0,#
0+#
0*#
0)#
0(#
0'#
0H#
0G#
0F#
0E#
0D#
0C#
0B#
0A#
0@#
0?#
0>#
0=#
0<#
0;#
0:#
09#
08#
07#
06#
05#
04#
03#
02#
01#
00#
0/#
$end
#10000
1!
b0 "
1=!
0s!
1>!
0T
1D"
0?"
04"
13"
01"
0-"
1,"
0("
1%"
1{!
0v!
0u!
1H#
1\
0[
1]
#20000
0!
b1 "
0=!
1s!
0>!
1T
0D"
1?"
06"
14"
03"
11"
1-"
0,"
1("
0%"
0{!
1v!
1u!
16"
#30000
1!
b0 "
1=!
0s!
1>!
0T
1D"
0?"
04"
13"
01"
0-"
1,"
0("
1%"
1{!
0v!
0u!
1G#
0H#
0^
0]
0\
1[
1_
1^
1]
0_
#40000
0!
b1 "
0=!
1s!
0>!
1T
0D"
1?"
06"
14"
03"
11"
1-"
0,"
1("
0%"
0{!
1v!
1u!
16"
#50000
1!
b0 "
1=!
0s!
1>!
0T
1D"
0?"
04"
13"
01"
0-"
1,"
0("
1%"
1{!
0v!
0u!
1H#
1\
0[
0^
0]
1_
#60000
0!
b1 "
0=!
1s!
0>!
1T
0D"
1?"
06"
14"
03"
11"
1-"
0,"
1("
0%"
0{!
1v!
1u!
16"
#70000
1!
b0 "
1=!
0s!
1>!
0T
1D"
0?"
04"
13"
01"
0-"
1,"
0("
1%"
1{!
0v!
0u!
1F#
0G#
0H#
1`
0_
1^
1]
0\
1[
1a
0`
1_
0]
0a
#80000
0!
b1 "
0=!
1s!
0>!
1T
0D"
1?"
06"
14"
03"
11"
1-"
0,"
1("
0%"
0{!
1v!
1u!
16"
#90000
1!
b0 "
1=!
0s!
1>!
0T
1D"
0?"
04"
13"
01"
0-"
1,"
0("
1%"
1{!
0v!
0u!
1H#
1\
0[
1]
#100000
0!
b1 "
0=!
1s!
0>!
1T
0D"
1?"
06"
14"
03"
11"
1-"
0,"
1("
0%"
0{!
1v!
1u!
16"
#110000
1!
b0 "
1=!
0s!
1>!
0T
1D"
0?"
04"
13"
01"
0-"
1,"
0("
1%"
1{!
0v!
0u!
1G#
0H#
0^
0]
0\
1[
1`
0_
1^
1]
1a
0`
1_
0a
#120000
0!
b1 "
0=!
1s!
0>!
1T
0D"
1?"
06"
14"
03"
11"
1-"
0,"
1("
0%"
0{!
1v!
1u!
16"
#130000
1!
b0 "
1=!
0s!
1>!
0T
1D"
0?"
04"
13"
01"
0-"
1,"
0("
1%"
1{!
0v!
0u!
1H#
08!
1\
0[
0^
0]
1`
0_
1a
#140000
0!
b1 "
0=!
1s!
0>!
1T
0D"
1?"
06"
14"
03"
11"
1-"
0,"
1("
0%"
0{!
1v!
1u!
16"
#150000
1!
b0 "
1=!
0s!
1>!
0T
1D"
0?"
04"
13"
01"
0-"
1,"
0("
1%"
1{!
0v!
0u!
1E#
0F#
0G#
0H#
0b
0a
0`
1_
1^
1]
0\
1[
1c
1b
1a
0_
0]
0c
#160000
0!
b1 "
0=!
1s!
0>!
1T
0D"
1?"
06"
14"
03"
11"
1-"
0,"
1("
0%"
0{!
1v!
1u!
16"
#170000
1!
b0 "
1=!
0s!
1>!
0T
1D"
0?"
04"
13"
01"
0-"
1,"
0("
1%"
1{!
0v!
0u!
1H#
1\
0[
1]
#180000
0!
b1 "
0=!
1s!
0>!
1T
0D"
1?"
06"
14"
03"
11"
1-"
0,"
1("
0%"
0{!
1v!
1u!
16"
#190000
1!
b0 "
1=!
0s!
1>!
0T
1D"
0?"
04"
13"
01"
0-"
1,"
0("
1%"
1{!
0v!
0u!
1G#
0H#
0^
0]
0\
1[
1_
1^
1]
0_
#200000
0!
b1 "
0=!
1s!
0>!
1T
0D"
1?"
06"
14"
03"
11"
1-"
0,"
1("
0%"
0{!
1v!
1u!
16"
#210000
1!
b0 "
1=!
0s!
1>!
0T
1D"
0?"
04"
13"
01"
0-"
1,"
0("
1%"
1{!
0v!
0u!
1H#
1\
0[
0^
0]
1_
#220000
0!
b1 "
0=!
1s!
0>!
1T
0D"
1?"
06"
14"
03"
11"
1-"
0,"
1("
0%"
0{!
1v!
1u!
16"
#230000
1!
b0 "
1=!
0s!
1>!
0T
1D"
0?"
04"
13"
01"
0-"
1,"
0("
1%"
1{!
0v!
0u!
1F#
0G#
0H#
1`
0_
1^
1]
0\
1[
0b
0a
0`
1_
0]
1c
1b
1a
0c
#240000
0!
b1 "
0=!
1s!
0>!
1T
0D"
1?"
06"
14"
03"
11"
1-"
0,"
1("
0%"
0{!
1v!
1u!
16"
#250000
1!
b0 "
1=!
0s!
1>!
0T
1D"
0?"
04"
13"
01"
0-"
1,"
0("
1%"
1{!
0v!
0u!
1H#
1\
0[
1]
#260000
0!
b1 "
0=!
1s!
0>!
1T
0D"
1?"
06"
14"
03"
11"
1-"
0,"
1("
0%"
0{!
1v!
1u!
16"
#270000
1!
b0 "
1=!
0s!
1>!
0T
1D"
0?"
04"
13"
01"
0-"
1,"
0("
1%"
1{!
0v!
0u!
1G#
0H#
0^
0]
0\
1[
1`
0_
1^
1]
0b
0a
0`
1_
1c
1b
1a
0c
#280000
0!
b1 "
0=!
1s!
0>!
1T
0D"
1?"
06"
14"
03"
11"
1-"
0,"
1("
0%"
0{!
1v!
1u!
16"
#290000
1!
b0 "
1=!
0s!
1>!
0T
1D"
0?"
04"
13"
01"
0-"
1,"
0("
1%"
1{!
0v!
0u!
1H#
1\
0[
0^
0]
1`
0_
0b
0a
1c
#300000
0!
b1 "
0=!
1s!
0>!
1T
0D"
1?"
06"
14"
03"
11"
1-"
0,"
1("
0%"
0{!
1v!
1u!
16"
#310000
1!
b0 "
1=!
0s!
1>!
0T
1D"
0?"
04"
13"
01"
0-"
1,"
0("
1%"
1{!
0v!
0u!
0E#
0F#
0G#
0H#
1D#
18!
1b
1a
0`
1_
1^
1]
0\
1[
1d
0c
0d
1c
0a
0_
0]
1e
0e
#320000
0!
b1 "
0=!
1s!
0>!
1T
0D"
1?"
06"
14"
03"
11"
1-"
0,"
1("
0%"
0{!
1v!
1u!
16"
#330000
1!
b0 "
1=!
0s!
1>!
0T
1D"
0?"
04"
13"
01"
0-"
1,"
0("
1%"
1{!
0v!
0u!
1H#
1\
0[
1]
#340000
0!
b1 "
0=!
1s!
0>!
1T
0D"
1?"
06"
14"
03"
11"
1-"
0,"
1("
0%"
0{!
1v!
1u!
16"
#350000
1!
b0 "
1=!
0s!
1>!
0T
1D"
0?"
04"
13"
01"
0-"
1,"
0("
1%"
1{!
0v!
0u!
1G#
0H#
0^
0]
0\
1[
1_
1^
1]
0_
#360000
0!
b1 "
0=!
1s!
0>!
1T
0D"
1?"
06"
14"
03"
11"
1-"
0,"
1("
0%"
0{!
1v!
1u!
16"
#370000
1!
b0 "
1=!
0s!
1>!
0T
1D"
0?"
04"
13"
01"
0-"
1,"
0("
1%"
1{!
0v!
0u!
1H#
1\
0[
0^
0]
1_
#380000
0!
b1 "
0=!
1s!
0>!
1T
0D"
1?"
06"
14"
03"
11"
1-"
0,"
1("
0%"
0{!
1v!
1u!
16"
#390000
1!
b0 "
1=!
0s!
1>!
0T
1D"
0?"
04"
13"
01"
0-"
1,"
0("
1%"
1{!
0v!
0u!
1F#
0G#
0H#
1`
0_
1^
1]
0\
1[
1a
0`
1_
0]
0a
#400000
0!
b1 "
0=!
1s!
0>!
1T
0D"
1?"
06"
14"
03"
11"
1-"
0,"
1("
0%"
0{!
1v!
1u!
16"
#410000
1!
b0 "
1=!
0s!
1>!
0T
1D"
0?"
04"
13"
01"
0-"
1,"
0("
1%"
1{!
0v!
0u!
1H#
1\
0[
1]
#420000
0!
b1 "
0=!
1s!
0>!
1T
0D"
1?"
06"
14"
03"
11"
1-"
0,"
1("
0%"
0{!
1v!
1u!
16"
#430000
1!
b0 "
1=!
0s!
1>!
0T
1D"
0?"
04"
13"
01"
0-"
1,"
0("
1%"
1{!
0v!
0u!
1G#
0H#
0^
0]
0\
1[
1`
0_
1^
1]
1a
0`
1_
0a
#440000
0!
b1 "
0=!
1s!
0>!
1T
0D"
1?"
06"
14"
03"
11"
1-"
0,"
1("
0%"
0{!
1v!
1u!
16"
#450000
1!
b0 "
1=!
0s!
1>!
0T
1D"
0?"
04"
13"
01"
0-"
1,"
0("
1%"
1{!
0v!
0u!
1H#
08!
1\
0[
0^
0]
1`
0_
1a
#460000
0!
b1 "
0=!
1s!
0>!
1T
0D"
1?"
06"
14"
03"
11"
1-"
0,"
1("
0%"
0{!
1v!
1u!
16"
#470000
1!
b0 "
1=!
0s!
1>!
0T
1D"
0?"
04"
13"
01"
0-"
1,"
0("
1%"
1{!
0v!
0u!
1E#
0F#
0G#
0H#
0b
0a
0`
1_
1^
1]
0\
1[
1d
0c
1b
1a
0_
0]
1e
0d
1c
0e
#480000
0!
b1 "
0=!
1s!
0>!
1T
0D"
1?"
06"
14"
03"
11"
1-"
0,"
1("
0%"
0{!
1v!
1u!
16"
#490000
1!
b0 "
1=!
0s!
1>!
0T
1D"
0?"
04"
13"
01"
0-"
1,"
0("
1%"
1{!
0v!
0u!
1H#
1\
0[
1]
#500000
0!
b1 "
0=!
1s!
0>!
1T
0D"
1?"
06"
14"
03"
11"
1-"
0,"
1("
0%"
0{!
1v!
1u!
16"
#510000
1!
b0 "
1=!
0s!
1>!
0T
1D"
0?"
04"
13"
01"
0-"
1,"
0("
1%"
1{!
0v!
0u!
1G#
0H#
0^
0]
0\
1[
1_
1^
1]
0_
#520000
0!
b1 "
0=!
1s!
0>!
1T
0D"
1?"
06"
14"
03"
11"
1-"
0,"
1("
0%"
0{!
1v!
1u!
16"
#530000
1!
b0 "
1=!
0s!
1>!
0T
1D"
0?"
04"
13"
01"
0-"
1,"
0("
1%"
1{!
0v!
0u!
1H#
1\
0[
0^
0]
1_
#540000
0!
b1 "
0=!
1s!
0>!
1T
0D"
1?"
06"
14"
03"
11"
1-"
0,"
1("
0%"
0{!
1v!
1u!
16"
#550000
1!
b0 "
1=!
0s!
1>!
0T
1D"
0?"
04"
13"
01"
0-"
1,"
0("
1%"
1{!
0v!
0u!
1F#
0G#
0H#
1`
0_
1^
1]
0\
1[
0b
0a
0`
1_
0]
1d
0c
1b
1a
1e
0d
1c
0e
#560000
0!
b1 "
0=!
1s!
0>!
1T
0D"
1?"
06"
14"
03"
11"
1-"
0,"
1("
0%"
0{!
1v!
1u!
16"
#570000
1!
b0 "
1=!
0s!
1>!
0T
1D"
0?"
04"
13"
01"
0-"
1,"
0("
1%"
1{!
0v!
0u!
1H#
1\
0[
1]
#580000
0!
b1 "
0=!
1s!
0>!
1T
0D"
1?"
06"
14"
03"
11"
1-"
0,"
1("
0%"
0{!
1v!
1u!
16"
#590000
1!
b0 "
1=!
0s!
1>!
0T
1D"
0?"
04"
13"
01"
0-"
1,"
0("
1%"
1{!
0v!
0u!
1G#
0H#
0^
0]
0\
1[
1`
0_
1^
1]
0b
0a
0`
1_
1d
0c
1b
1a
1e
0d
1c
0e
#600000
0!
b1 "
0=!
1s!
0>!
1T
0D"
1?"
06"
14"
03"
11"
1-"
0,"
1("
0%"
0{!
1v!
1u!
16"
#610000
1!
b0 "
1=!
0s!
1>!
0T
1D"
0?"
04"
13"
01"
0-"
1,"
0("
1%"
1{!
0v!
0u!
1H#
1\
0[
0^
0]
1`
0_
0b
0a
1d
0c
1e
#620000
0!
b1 "
0=!
1s!
0>!
1T
0D"
1?"
06"
14"
03"
11"
1-"
0,"
1("
0%"
0{!
1v!
1u!
16"
#630000
1!
b0 "
1=!
0s!
1>!
0T
1D"
0?"
04"
13"
01"
0-"
1,"
0("
1%"
1{!
0v!
0u!
0E#
0F#
0G#
0H#
0D#
1C#
18!
1b
1a
0`
1_
1^
1]
0\
1[
19!
0d
1c
0f
0e
09!
0c
0a
0_
0]
1f
1e
1g
0g
#640000
0!
b1 "
0=!
1s!
0>!
1T
0D"
1?"
06"
14"
03"
11"
1-"
0,"
1("
0%"
0{!
1v!
1u!
16"
#650000
1!
b0 "
1=!
0s!
1>!
0T
1D"
0?"
04"
13"
01"
0-"
1,"
0("
1%"
1{!
0v!
0u!
1H#
1\
0[
1]
#660000
0!
b1 "
0=!
1s!
0>!
1T
0D"
1?"
06"
14"
03"
11"
1-"
0,"
1("
0%"
0{!
1v!
1u!
16"
